<?xml version="1.0" encoding="utf-8"?>
<!-- Generator: Adobe Illustrator 21.0.0, SVG Export Plug-In . SVG Version: 6.00 Build 0)  -->
<svg version="1.1" xmlns="http://www.w3.org/2000/svg" xmlns:xlink="http://www.w3.org/1999/xlink" x="0px" y="0px"
	 viewBox="0 0 227 227" style="enable-background:new 0 0 227 227;" xml:space="preserve">
<style type="text/css">
	.st0{fill:#135F84;}
	.st1{fill:#FFFFFF;}
	.st2{font-family:'WorkSans-Medium';}
	.st3{font-size:242.1169px;}
</style>
<g id="Layer_1">
	<title>info-icon</title>
	<circle class="st0" cx="113.5" cy="113.5" r="113.5"/>
</g>
<g id="Layer_2">
	<text transform="matrix(1 0 0 1 39.9985 191.29)" class="st1 st2 st3">+</text>
</g>
</svg>
