{
  "step2documents": {
    "machine_name": "step2documents",
    "title": "Admitted",
    "description": "Send us your official transcripts or GED.",
    "link": "https://www.hfcc.edu/steps/documents",
    "handler": "MyAlertStepsHandler",
    "audience": "admitted",
    "level": 1,
    "dismissible": false
  },
  "step3placementmath": {
    "machine_name": "step3placementmath",
    "title": "Placement Math",
    "description": "It is recommended that you take a Math placement test.",
    "link": "https://www.hfcc.edu/steps/placement",
    "handler": "MyAlertStepsHandler",
    "audience": "admitted",
    "level": 2,
    "dismissible": true
  },
  "step3placementengl": {
    "machine_name": "step3placementengl",
    "title": "Placement English",
    "description": "It is recommended that you take an English placement test.",
    "link": "https://www.hfcc.edu/steps/placement",
    "handler": "MyAlertStepsHandler",
    "audience": "admitted",
    "level": 2,
    "dismissible": true
  },
  "step4orientation": {
    "machine_name": "step4orientation",
    "title": "Orientation",
    "description": "Complete New Student Orientation.",
    "link": "https://my.hfcc.edu/comevo",
    "handler": "MyAlertStepsHandler",
    "audience": "admitted",
    "level": 2,
    "dismissible": false
  },
  "step5advising": {
    "machine_name": "step5advising",
    "title": "Advising",
    "description": "Schedule a meeting with your advisor.",
    "link": "https://www.hfcc.edu/steps/advising",
    "handler": "MyAlertStepsHandler",
    "audience": "admitted",
    "level": 2,
    "dismissible": true
  },
  "step6register": {
    "machine_name": "step6register",
    "title": "Registration",
    "description": "Register for classes.",
    "link": "https://www.hfcc.edu/steps/register",
    "handler": "MyAlertStepsHandler",
    "prereq": [
      "step4orientation"
    ],
    "level": 2,
    "dismissible": false
  },
  "step7payment": {
    "machine_name": "step7payment",
    "title": "Payment",
    "description": "You have an outstanding balance due for the current term. Please pay promptly.",
    "link": "https://sss.hfcc.edu/Student/Finance",
    "handler": "MyAlertStepsHandler",
    "level": 2,
    "dismissible": false
  },
  "addressconfirm": {
    "machine_name": "addressconfirm",
    "title": "Address Confirmation",
    "description": "Please confirm the mailing address shown in your user profile.",
    "link": "https://sss.hfcc.edu/Student/UserProfile",
    "handler": "MyAlertStepsHandler",
    "level": 2,
    "dismissible": false
  },
  "agreementconfirm": {
    "machine_name": "agreementconfirm",
    "title": "Agreements Confirmation",
    "description": "Please accept the required financial agreement before registering for classes.",
    "link": "https://sss.hfcc.edu/Student/Agreements",
    "handler": "MyAlertStepsHandler",
    "level": 2,
    "dismissible": false
  },
  "studentid": {
    "machine_name": "studentid",
    "title": "Student ID",
    "description": "Get your free student ID card.",
    "link": "https://www.hfcc.edu/student-id",
    "prereq": [
      "step6register"
    ],
    "handler": "MyAlertIdHandler",
    "level": 2,
    "dismissible": true
  },
  "priorityreg": {
    "machine_name": "priorityreg",
    "title": "Priority Registration",
    "description": "Priority registration for <strong>@myterm</strong> begins on @regstart. Your <strong>@myterm</strong> priority registration date and time are <strong>@mydate at @mytime</strong>.",
    "link": "",
    "handler": "MyAlertRgprHandler",
    "level": 2,
    "dismissible": true,
    "overrides": [
      "step6register"
    ],
    "repeats": "semester"
  },
  "des_orientation": {
    "machine_name": "des_orientation",
    "title": "Duel Enrollment Orientation",
    "description": "Complete Dual Enrollment Orientation.",
    "link": "https://my.hfcc.edu/comevo/des",
    "handler": "MyAlertStepsHandler",
    "audience": "admitted",
    "level": 2,
    "dismissible": false
  },
  "fa_checklist": {
    "machine_name": "fa_checklist",
    "title": "Financial Aid Checkist",
    "description": "Complete your @acyr Financial Aid items.",
    "link": "https://sss.hfcc.edu/Student/FinancialAid/Documents",
    "handler": "MyAlertFaHandler",
    "level": 2,
    "dismissible": false,
    "repeats": "annual"
  },
  "fafsa_remind": {
    "machine_name": "fafsa_remind",
    "title": "FAFSA",
    "description": "Don't forget to submit your @acyr FAFSA! Be sure to add HFC's School Code: 002270.",
    "link": "https://fafsa.ed.gov/",
    "handler": "MyAlertFafsaHandler",
    "level": 2,
    "dismissible": true,
    "valid_delta": "2019",
    "start_date": 1548997200,
    "end_date": 1561957200,
    "repeats": "annual"
  },
  "scholarship_remind": {
    "machine_name": "scholarship_remind",
    "title": "Scholarship Reminder",
    "description": "Need tuition money for 2023-2024? Apply today for HFC scholarships! The deadline is March 31.",
    "link": "https://www.hfcc.edu/payment/scholarships",
    "level": 2,
    "valid_delta": "2023",
    "dismissible": true,
    "start_date": 1675209600,
    "end_date": 1680307200,
    "repeats": "annual"
  },
  "final_exam_reminder": {
    "machine_name": "final_exam_reminder",
    "title": "Final Exam Reminder",
    "description": "Final Exams will be held May 2-7. View the Final Exam Schedule for details.",
    "link": "https://www.hfcc.edu/events/academic/final-exam",
    "level": 2,
    "valid_delta": "23/WI",
    "dismissible": true,
    "start_date": 1682308800,
    "end_date": 1683518400,
    "repeats": "semester"
  }
}
